…
``` r
rankhospital(hospitals, 'FL', 'pneumonia', 5) 
```

    ## [1] "FLAGLER HOSPITAL"

rankall(hospital\_table, outcome, num = ‘best’)
-----------------------------------------------

``` r
rankall(hospitals, 'heart attack', 'best') 
```

    ## # A tibble: 54 x 2
    ##    hospital                             state
    ##    <chr>                                <chr>
    ##  1 PROVIDENCE ALASKA MEDICAL CENTER     AK   
    ##  2 CRESTWOOD MEDICAL CENTER             AL   
    ##  3 ARKANSAS HEART HOSPITAL              AR   
    ##  4 MAYO CLINIC HOSPITAL                 AZ   
    ##  5 GLENDALE ADVENTIST MEDICAL CENTER    CA   
    ##  6 ST MARYS HOSPITAL AND MEDICAL CENTER CO   
    ##  7 WATERBURY HOSPITAL                   CT   
    ##  8 PROVIDENCE HOSPITAL                  DC   
    ##  9 BAYHEALTH - KENT GENERAL HOSPITAL    DE   
    ## 10 MOUNT SINAI MEDICAL CENTER           FL   
    ## # … with 44 more rows

``` r
rankall(hospitals, 'pneumonia', 'worst')
```

    ## # A tibble: 54 x 2
    ##    hospital                              state
    ##    <chr>                                 <chr>
    ##  1 ALASKA NATIVE MEDICAL CENTER          AK   
    ##  2 JACKSONVILLE MEDICAL CENTER           AL   
    ##  3 RIVER VALLEY MEDICAL CENTER           AR   
    ##  4 HAVASU REGIONAL MEDICAL CENTER        AZ   
    ##  5 DELANO REGIONAL MEDICAL CENTER        CA   
    ##  6 ST MARYS HOSPITAL AND MEDICAL CENTER  CO   
    ##  7 MILFORD HOSPITAL, INC                 CT   
    ##  8 GEORGETOWN UNIVERSITY HOSPITAL        DC   
    ##  9 CHRISTIANA CARE HEALTH SERVICES, INC. DE   
    ## 10 SEVEN RIVERS REGIONAL MEDICAL CENTER  FL   
    ## # … with 44 more rows

``` r
rankall(hospitals, 'heart failure', 2)
```

    ## # A tibble: 54 x 2
    ##    hospital                             state
    ##    <chr>                                <chr>
    ##  1 YUKON KUSKOKWIM DELTA REG HOSPITAL   AK   
    ##  2 EVERGREEN MEDICAL CENTER             AL   
    ##  3 NORTH METRO MEDICAL CENTER           AR   
    ##  4 COBRE VALLEY REGIONAL MEDICAL CENTER AZ   
    ##  5 CEDARS-SINAI MEDICAL CENTER          CA   
    ##  6 SKY RIDGE MEDICAL CENTER             CO   
    ##  7 HOSPITAL OF ST RAPHAEL               CT   
    ##  8 HOWARD UNIVERSITY HOSPITAL           DC   
    ##  9 NANTICOKE MEMORIAL HOSPITAL          DE   
    ## 10 LAKE CITY MEDICAL CENTER             FL   
    ## # … with 44 more rows
